[
    {
        "modelwrap":{
            "model":"a6300",
            "rawmodel":"&alpha;6300",
            "alt": "Alpha 6300",
            "logo": "img/lightbox/logo-alpha_6300-small.png",
            "description": "Mirrorless camera in Super 35mm format",
            "link": {
                "th": "//www.sony.co.th/th/electronics/interchangeable-lens-cameras/ilce-6300-body-kit?cid=ILCE-6300:pdp:ilc:ms:videographer:th:cameras",
                "sg": "//www.sony.com.sg/electronics/interchangeable-lens-cameras/ilce-6300-body-kit?cid=ILCE-6300:pdp:ilc:ms:videographer:sg:cameras",
                "my": "//www.sony.com.my/electronics/interchangeable-lens-cameras/ilce-6300-body-kit?cid=ILCE-6300:pdp:ilc:ms:videographer:my:cameras",
                "ph": "//www.sony.com.ph/electronics/interchangeable-lens-cameras/ilce-6300-body-kit?cid=ILCE-6300:pdp:ilc:ms:videographer:ph:cameras",
                "id": "//www.sony.co.id/id/electronics/kamera-dengan-lensa-yang-dapat-ditukar/ilce-6300-body-kit?cid=ILCE-6300:pdp:ilc:ms:videographer:id:cameras",
                "vn": "//www.sony.com.vn/electronics/may-anh-ky-thuat-so-may-anh/ilce-6300-body-kit?cid=ILCE-6300:pdp:ilc:ms:videographer:vn:cameras",
                "sea": "//smarturl.it/y3udd4" 
            },
            "cid":"ILCE-6300",
            "videos": [
                {
                    "video":{
                        "id": 1,
                        "title": "Ultimate resolution 4K movie in Super 35mm",
                        "videolink": "https://www.youtube.com/embed/kk-4OuvUzlg"
                    }
                }, 
                {
                    "video":{
                        "id": 2,
                        "title": "Advanced 4D FOCUS",
                        "videolink": "https://www.youtube.com/embed/83ZSD-zj73A"
                    }
                }, 
                {
                    "video":{
                        "id": 3,
                        "title": "Fast Hybrid AF in 4K movies",
                        "videolink": "https://www.youtube.com/embed/6rv9a1g5iu8"
                    }
                }, 
                {
                    "video":{
                        "id": 4,
                        "title": "Fast Hybrid AF for movies comparison in Full HD",
                        "videolink": "https://www.youtube.com/embed/lqY0YKmVuD0"
                    }
                }, 
                {
                    "video":{
                        "id": 5,
                        "title": "5x Slow Motion in Full HD",
                        "videolink": "https://www.youtube.com/embed/FFxtXIzBYAA"
                    }
                }
            ]
        }
    },  
    {
        "modelwrap":{
            "model":"a7rm2",
            "rawmodel":"&alpha;7R II",
            "alt": "Alpha 7RII",
            "logo": "img/lightbox/logo-alpha_7_r_ii-small.png",
            "description": "Mirrorless camera with back-illuminated full-frame sensor",
            "link": {
                "th": "//www.sony.co.th/th/electronics/interchangeable-lens-cameras/ilce-7rm2?cid=ILCE-7RM2:pdp:ilc:ms:videographer:th:cameras",
                "sg": "//www.sony.com.sg/electronics/interchangeable-lens-cameras/ilce-7rm2?cid=ILCE-7RM2:pdp:ilc:ms:videographer:sg:cameras",
                "my": "//www.sony.com.my/electronics/interchangeable-lens-cameras/ilce-7rm2?cid=ILCE-7RM2:pdp:ilc:ms:videographer:my:cameras",
                "ph": "//www.sony.com.ph/electronics/interchangeable-lens-cameras/ilce-7rm2?cid=ILCE-7RM2:pdp:ilc:ms:videographer:ph:cameras",
                "id": "//www.sony.co.id/id/electronics/kamera-dengan-lensa-yang-dapat-ditukar/ilce-7rm2?cid=ILCE-7RM2:pdp:ilc:ms:videographer:id:cameras",
                "vn": "//www.sony.com.vn/electronics/may-anh-ky-thuat-so-may-anh/ilce-7rm2?cid=ILCE-7RM2:pdp:ilc:ms:videographer:vn:cameras",
                "sea": "//smarturl.it/qkzp11" 
            },
            "cid":"ILCE-7RM2",
            "videos": [
                {
                    "video":{
                        "id": 1,
                        "title": "The High-resolution 4K movie in 35mm full-frame vol.01",
                        "videolink": "https://www.youtube.com/embed/1Jor_WkheaE"
                    }
                }, 
                {
                    "video":{
                        "id": 2,
                        "title": "The Ultimate High-resolution 4K movie in Super 35mm vol.02",
                        "videolink": "https://www.youtube.com/embed/vE5EBxRo7a8"
                    }
                }
            ]
        }
    },
    {
        "modelwrap":{
            "model":"a7sm2",
            "rawmodel":"&alpha;7S II",
            "alt": "Alpha 7SII",
            "logo": "img/lightbox/logo-alpha_7_s_ii-small.png",
            "description": "Mirrorless camera with ultra-sensitivity full-frame sensor and 5-axis stabilisation",
            "link": {
                "th": "//www.sony.co.th/th/electronics/interchangeable-lens-cameras/ilce-7sm2?cid=ILCE-7SM2:pdp:ilc:ms:videographer:th:cameras",
                "sg": "//www.sony.com.sg/electronics/interchangeable-lens-cameras/ilce-7sm2?cid=ILCE-7SM2:pdp:ilc:ms:videographer:sg:cameras",
                "my": "//www.sony.com.my/electronics/interchangeable-lens-cameras/ilce-7sm2?cid=ILCE-7SM2:pdp:ilc:ms:videographer:my:cameras",
                "ph": "//www.sony.com.ph/electronics/interchangeable-lens-cameras/ilce-7sm2?cid=ILCE-7SM2:pdp:ilc:ms:videographer:ph:cameras",
                "id": "//www.sony.co.id/id/electronics/kamera-dengan-lensa-yang-dapat-ditukar/ilce-7sm2?cid=ILCE-7SM2:pdp:ilc:ms:videographer:id:cameras",
                "vn": "//www.sony.com.vn/electronics/may-anh-ky-thuat-so-may-anh/ilce-7sm2?cid=ILCE-7SM2:pdp:ilc:ms:videographer:vn:cameras",
                "sea": "//smarturl.it/yd8rjv" 
            },
            "cid":"ILCE-7SM2",
            "videos": [
                {
                    "video":{
                        "id": 1,
                        "title": "See What You Can’t See - Capture spectacular details under most challenging low light conditions that escape even the human eye.",
                        "videolink": "https://www.youtube.com/embed/gtSSRonoDxQ?list=PLGlBTvwIoYxKriMsid9mu_TFIeaKdu5Z-"
                    } 
                }, 
                {
                    "video":{
                        "id": 2,
                        "title": "High quality 4K movie \"Landscape\" in full-frame",
                        "videolink": "https://www.youtube.com/embed/7oOMLKb8EaY"
                    }
                }, 
                {
                    "video":{
                        "id": 3,
                        "title": "4K low-light ISO comparison movie",
                        "videolink": "https://www.youtube.com/embed/CVLBHMbRMW4"
                    }
                }, 
                {
                    "video":{
                        "id": 4,
                        "title": "5x Slow Motion \"Takigi-noh\" in Full HD",
                        "videolink": "https://www.youtube.com/embed/ewX5BHJN6MU"
                    }
                }, 
                {
                    "video":{
                        "id": 5,
                        "title": "High-quality 4K movie “takigi-noh” full-frame",
                        "videolink": "https://www.youtube.com/embed/f0y23l252RI"
                    }
                }
            ]
        }
    },
    {
        "modelwrap":{
            "model":"a7s",
            "rawmodel":"&alpha;7S",
            "alt": "Alpha 7S",
            "logo": "img/lightbox/logo-alpha_7_s-small.png",
            "description": "Mirrorless camera with ultra-sensitivity full-frame sensor",
            "link": {
                "th": "//www.sony.co.th/th/electronics/interchangeable-lens-cameras/ilce-7s?cid=ILCE-7SM2:pdp:ilc:ms:videographer:th:cameras",
                "sg": "//www.sony.com.sg/electronics/interchangeable-lens-cameras/ilce-7s?cid=ILCE-7SM2:pdp:ilc:ms:videographer:sg:cameras",
                "my": "//www.sony.com.my/electronics/interchangeable-lens-cameras/ilce-7s?cid=ILCE-7SM2:pdp:ilc:ms:videographer:my:cameras",
                "ph": "//www.sony.com.ph/electronics/interchangeable-lens-camera-products/t/interchangeable-lens-cameras?cid=ILCE-7SM2:pdp:ilc:ms:videographer:ph:cameras",
                "id": "//www.sony.co.id/id/electronics/kamera-dengan-lensa-yang-dapat-ditukar/ilce-7s?cid=ILCE-7SM2:pdp:ilc:ms:videographer:id:cameras",
                "vn": "//www.sony.com.vn/electronics/may-anh-ky-thuat-so-may-anh/ilce-7s?cid=ILCE-7SM2:pdp:ilc:ms:videographer:vn:cameras",
                "sea": "//smarturl.it/prmxkd" 
            },
            "cid":"ILCE-7S",
            "videos": [
                {
                    "video":{
                        "id": 1,
                        "title": "Unparalleled 4K image quality",
                        "videolink": "https://www.youtube.com/embed/AIH_CQIh5oU"
                    }
                }
            ]
        }
    }
]